0 @F0023@ FAM
1 MARR
2 DATE
3 ENG 11/12/1989
3 MARR 12/12/1989
3 OTHER
4 SON 1/4/1992
4 DAUGHER 1/8/1992
1 CHIL @I0077@
1 HUSB @I0063@
1 WIFE @I0061@

0 @F0025@ FAM
1 MARR
2 DATE
3 ENG 11/12/1989
3 MARR 12/12/1989
3 OTHER
4 SON 1/4/1992
4 DAUGHER 1/8/1992
1 CHIL @I0077@
1 HUSB @I0063@
1 WIFE @I0061@